
  EPA STORM WATER MANAGEMENT MODEL - VERSION 5.1 (Build 5.2.0.dev6)
  --------------------------------------------------------------

   Example 3 
   Use of Rule-Based Pump Controls 
   and Dry Weather Flow Patterns 
  